[
  {
    "code": "654",
    "name": "Abdali",
    "subdivision": null
  },
  {
    "code": "655",
    "name": "Abdulla Al-Salem",
    "subdivision": null
  },
  {
    "code": "656",
    "name": "Abdullah Al Mubarak",
    "subdivision": null
  },
  {
    "code": "657",
    "name": "Abu Fatira",
    "subdivision": null
  },
  {
    "code": "658",
    "name": "Abu Halifa",
    "subdivision": null
  },
  {
    "code": "659",
    "name": "Abu Hasaniya",
    "subdivision": null
  },
  {
    "code": "660",
    "name": "Adailiya",
    "subdivision": null
  },
  {
    "code": "661",
    "name": "Ahmadi",
    "subdivision": null
  },
  {
    "code": "662",
    "name": "Al-Adan",
    "subdivision": null
  },
  {
    "code": "663",
    "name": "Al-Andalous",
    "subdivision": null
  },
  {
    "code": "664",
    "name": "Al-Bidaa",
    "subdivision": null
  },
  {
    "code": "665",
    "name": "Al-Daher",
    "subdivision": null
  },
  {
    "code": "666",
    "name": "Al-Fnaitees",
    "subdivision": null
  },
  {
    "code": "667",
    "name": "Al-Nahda",
    "subdivision": null
  },
  {
    "code": "668",
    "name": "Al-Naseem",
    "subdivision": null
  },
  {
    "code": "669",
    "name": "Al-Qosoor",
    "subdivision": null
  },
  {
    "code": "670",
    "name": "Al-Siddiq",
    "subdivision": null
  },
  {
    "code": "671",
    "name": "Al-Zoor",
    "subdivision": null
  },
  {
    "code": "672",
    "name": "Ali Subah Al-Salem",
    "subdivision": null
  },
  {
    "code": "673",
    "name": "AlRabia",
    "subdivision": null
  },
  {
    "code": "674",
    "name": "AlRai",
    "subdivision": null
  },
  {
    "code": "675",
    "name": "Amghara",
    "subdivision": null
  },
  {
    "code": "676",
    "name": "Ardhiya",
    "subdivision": null
  },
  {
    "code": "677",
    "name": "Ashbeliah",
    "subdivision": null
  },
  {
    "code": "678",
    "name": "Bayan",
    "subdivision": null
  },
  {
    "code": "679",
    "name": "Bneid Al Qar",
    "subdivision": null
  },
  {
    "code": "680",
    "name": "Daiya",
    "subdivision": null
  },
  {
    "code": "681",
    "name": "Dasma",
    "subdivision": null
  },
  {
    "code": "682",
    "name": "Dasman",
    "subdivision": null
  },
  {
    "code": "683",
    "name": "Dhajeej",
    "subdivision": null
  },
  {
    "code": "684",
    "name": "Doha",
    "subdivision": null
  },
  {
    "code": "685",
    "name": "Egaila",
    "subdivision": null
  },
  {
    "code": "686",
    "name": "Fahad Al-Ahmad",
    "subdivision": null
  },
  {
    "code": "687",
    "name": "Fahaheel",
    "subdivision": null
  },
  {
    "code": "688",
    "name": "Faiha",
    "subdivision": null
  },
  {
    "code": "689",
    "name": "Farwaniya",
    "subdivision": null
  },
  {
    "code": "690",
    "name": "Ferdous",
    "subdivision": null
  },
  {
    "code": "691",
    "name": "Fintas",
    "subdivision": null
  },
  {
    "code": "692",
    "name": "Grenada",
    "subdivision": null
  },
  {
    "code": "693",
    "name": "Hadiya",
    "subdivision": null
  },
  {
    "code": "694",
    "name": "Hawally",
    "subdivision": null
  },
  {
    "code": "695",
    "name": "Hitteen",
    "subdivision": null
  },
  {
    "code": "696",
    "name": "Jaber Al-Ahmad",
    "subdivision": null
  },
  {
    "code": "697",
    "name": "Jaber Al-Ali",
    "subdivision": null
  },
  {
    "code": "698",
    "name": "Jabriya",
    "subdivision": null
  },
  {
    "code": "699",
    "name": "Jahra",
    "subdivision": null
  },
  {
    "code": "700",
    "name": "Jleeb Al-Shyoukh",
    "subdivision": null
  },
  {
    "code": "701",
    "name": "Kaerawan",
    "subdivision": null
  },
  {
    "code": "702",
    "name": "Kaifan",
    "subdivision": null
  },
  {
    "code": "703",
    "name": "Khairan",
    "subdivision": null
  },
  {
    "code": "704",
    "name": "Khaitan",
    "subdivision": null
  },
  {
    "code": "705",
    "name": "Khaldiya",
    "subdivision": null
  },
  {
    "code": "706",
    "name": "Mahboula",
    "subdivision": null
  },
  {
    "code": "707",
    "name": "Mangaf",
    "subdivision": null
  },
  {
    "code": "708",
    "name": "Mansouriya",
    "subdivision": null
  },
  {
    "code": "709",
    "name": "Mena Abdullah",
    "subdivision": null
  },
  {
    "code": "710",
    "name": "Mena Shuaiba",
    "subdivision": null
  },
  {
    "code": "711",
    "name": "Messayel",
    "subdivision": null
  },
  {
    "code": "712",
    "name": "Messila",
    "subdivision": null
  },
  {
    "code": "713",
    "name": "Mishref",
    "subdivision": null
  },
  {
    "code": "714",
    "name": "Mubarak Al-Abdullah",
    "subdivision": null
  },
  {
    "code": "715",
    "name": "Mubarak Al-Kabeer",
    "subdivision": null
  },
  {
    "code": "716",
    "name": "Murgab",
    "subdivision": null
  },
  {
    "code": "717",
    "name": "Naeem",
    "subdivision": null
  },
  {
    "code": "718",
    "name": "North Sulaibikhat",
    "subdivision": null
  },
  {
    "code": "719",
    "name": "Nuzha",
    "subdivision": null
  },
  {
    "code": "720",
    "name": "Omariya",
    "subdivision": null
  },
  {
    "code": "721",
    "name": "Oyoun",
    "subdivision": null
  },
  {
    "code": "722",
    "name": "Qadsiya",
    "subdivision": null
  },
  {
    "code": "723",
    "name": "Qasr",
    "subdivision": null
  },
  {
    "code": "724",
    "name": "Qibla",
    "subdivision": null
  },
  {
    "code": "725",
    "name": "Qortuba",
    "subdivision": null
  },
  {
    "code": "726",
    "name": "Qurain",
    "subdivision": null
  },
  {
    "code": "727",
    "name": "Rabiyah",
    "subdivision": null
  },
  {
    "code": "728",
    "name": "Rawda",
    "subdivision": null
  },
  {
    "code": "729",
    "name": "Rigga",
    "subdivision": null
  },
  {
    "code": "730",
    "name": "Riggae",
    "subdivision": null
  },
  {
    "code": "731",
    "name": "Rihab",
    "subdivision": null
  },
  {
    "code": "732",
    "name": "Rumaithiya",
    "subdivision": null
  },
  {
    "code": "733",
    "name": "Saad Al-Abdullah",
    "subdivision": null
  },
  {
    "code": "734",
    "name": "Sabah Al-Ahmad",
    "subdivision": null
  },
  {
    "code": "735",
    "name": "Sabah Al-Nasser",
    "subdivision": null
  },
  {
    "code": "736",
    "name": "Sabah Al-Salem",
    "subdivision": null
  },
  {
    "code": "737",
    "name": "Sabahiya",
    "subdivision": null
  },
  {
    "code": "738",
    "name": "Sabhan",
    "subdivision": null
  },
  {
    "code": "739",
    "name": "Salam",
    "subdivision": null
  },
  {
    "code": "740",
    "name": "RihSalhiyaab",
    "subdivision": null
  },
  {
    "code": "741",
    "name": "Salhiya",
    "subdivision": null
  },
  {
    "code": "742",
    "name": "Salmiya",
    "subdivision": null
  },
  {
    "code": "743",
    "name": "Salwa",
    "subdivision": null
  },
  {
    "code": "744",
    "name": "Shaab",
    "subdivision": null
  },
  {
    "code": "745",
    "name": "Shamiya",
    "subdivision": null
  },
  {
    "code": "746",
    "name": "Sharq",
    "subdivision": null
  },
  {
    "code": "747",
    "name": "Shuhada",
    "subdivision": null
  },
  {
    "code": "748",
    "name": "Shuwaikh",
    "subdivision": null
  },
  {
    "code": "749",
    "name": "Shuwaikh Administrative",
    "subdivision": null
  },
  {
    "code": "750",
    "name": "Shuwaikh Industrial",
    "subdivision": null
  },
  {
    "code": "751",
    "name": "Sulaibikhat",
    "subdivision": null
  },
  {
    "code": "752",
    "name": "Sulaibiya",
    "subdivision": null
  },
  {
    "code": "753",
    "name": "Sulaibiya Industrial",
    "subdivision": null
  },
  {
    "code": "754",
    "name": "Surra",
    "subdivision": null
  },
  {
    "code": "755",
    "name": "Taima",
    "subdivision": null
  },
  {
    "code": "756",
    "name": "Wafra",
    "subdivision": null
  },
  {
    "code": "757",
    "name": "Waha",
    "subdivision": null
  },
  {
    "code": "758",
    "name": "Yarmouk",
    "subdivision": null
  },
  {
    "code": "759",
    "name": "Zahra",
    "subdivision": null
  }
]